-------------------------------------------------------------------------------
Test set: com.db.demomidtier.PropertyLoaderTest
-------------------------------------------------------------------------------
Tests run: 3, Failures: 0, Errors: 0, Skipped: 0, Time elapsed: 0.023 sec
